<?xml version="1.0" encoding="utf-8"?>
<!-- Generator: Adobe Illustrator 18.1.0, SVG Export Plug-In . SVG Version: 6.00 Build 0)  -->
<svg version="1.1" id="Layer_1" xmlns="http://www.w3.org/2000/svg" xmlns:xlink="http://www.w3.org/1999/xlink" x="0px" y="0px"
	 viewBox="0 0 100 100" enable-background="new 0 0 100 100" xml:space="preserve">
<g id="Layer_1_1_" display="none">
	<rect display="inline" opacity="0.56" enable-background="new    " width="100" height="100"/>
</g>
<g id="Layer_2">
	<g>
		<path fill="none" stroke="#FFFFFF" stroke-width="2" stroke-linecap="round" stroke-miterlimit="10" d="M42.1,67.9"/>
	</g>
	<g>
		<path fill="#FFFFFF" d="M44.3,83.3c0,3.6,2.9,6.7,6.7,6.7c3.8,0,6.7-2.9,6.7-6.7V81H44.5L44.3,83.3L44.3,83.3z"/>
		<path fill="#FFFFFF" d="M77.6,67.6L77.6,67.6c0-5.2,0-6.9,0-13.1c0-17.1-8.8-31.2-23.3-32.9c2.9-1.2,5-4.3,5-7.6
			c0-4.5-3.8-8.3-8.3-8.3s-8.3,3.8-8.3,8.3c0,3.6,2.1,6.4,5.2,7.6c-14.3,1.9-23.1,16-23.1,32.6c0,6.7,0,2.6,0,13.1l0,0
			c-1.9,0-3.3,1.4-3.3,3.3c0,1.9,1.4,3.3,3.3,3.3h52.6c1.9,0,3.3-1.4,3.3-3.3C81,69,79.5,67.6,77.6,67.6z M51.2,12.6
			c1,0,1.7,0.7,1.7,1.7c0,1-0.7,1.7-1.7,1.7c-1,0-1.7-0.7-1.7-1.7C49.3,13.3,50.2,12.6,51.2,12.6z M51.7,28.3
			c5.7,0,10.2,2.4,13.8,7.1s5.7,11.7,5.7,19.3c0,3.6,0,5.7,0,8.1c0,1.4,0,2.9,0,4.8H31.7c0-5.7,0-7.1,0-8.3c0-1,0-1.7,0-4.8
			C31.7,37.4,41.7,28.3,51.7,28.3z"/>
	</g>
</g>
</svg>
