<?xml version="1.0" encoding="utf-8"?>
<!-- Generator: Adobe Illustrator 18.1.0, SVG Export Plug-In . SVG Version: 6.00 Build 0)  -->
<svg version="1.1" id="Layer_1" xmlns="http://www.w3.org/2000/svg" xmlns:xlink="http://www.w3.org/1999/xlink" x="0px" y="0px"
	 viewBox="0 0 100 100" enable-background="new 0 0 100 100" xml:space="preserve">
<g id="Layer_1_1_">
</g>
<g id="Layer_2">
	<g>
		<path fill="#FFFFFF" d="M76.4,20H23.6c-3.6,0-6.7,2.9-6.7,6.7v46c0,3.6,2.9,6.7,6.7,6.7h52.6c3.6,0,6.7-2.9,6.7-6.7V26.4
			C82.9,22.9,80,20,76.4,20z M76.4,26.4v1.7h-0.2L48.8,44.5L23.6,29.3v-2.9C23.6,26.4,76.4,26.4,76.4,26.4z M23.6,72.4V36.9
			l23.6,14.3c0.5,0.5,1.2,0.5,1.7,0.5s1.2-0.2,1.7-0.5l25.7-15.5v36.4H23.6V72.4z"/>
	</g>
</g>
</svg>
